<?xml version="1.0" encoding="UTF-8" standalone="no"?>
<svg
   xmlns:dc="http://purl.org/dc/elements/1.1/"
   xmlns:cc="http://creativecommons.org/ns#"
   xmlns:rdf="http://www.w3.org/1999/02/22-rdf-syntax-ns#"
   xmlns:svg="http://www.w3.org/2000/svg"
   xmlns="http://www.w3.org/2000/svg"
   xmlns:sodipodi="http://sodipodi.sourceforge.net/DTD/sodipodi-0.dtd"
   xmlns:inkscape="http://www.inkscape.org/namespaces/inkscape"
   width="64"
   height="64"
   version="1.1"
   id="svg13"
   sodipodi:docname="clock.svg"
   inkscape:version="0.92.2 (unknown)">
  <metadata
     id="metadata19">
    <rdf:RDF>
      <cc:Work
         rdf:about="">
        <dc:format>image/svg+xml</dc:format>
        <dc:type
           rdf:resource="http://purl.org/dc/dcmitype/StillImage" />
      </cc:Work>
    </rdf:RDF>
  </metadata>
  <defs
     id="defs17" />
  <sodipodi:namedview
     pagecolor="#ffffff"
     bordercolor="#666666"
     borderopacity="1"
     objecttolerance="10"
     gridtolerance="10"
     guidetolerance="10"
     inkscape:pageopacity="0"
     inkscape:pageshadow="2"
     inkscape:window-width="1920"
     inkscape:window-height="1026"
     id="namedview15"
     showgrid="false"
     inkscape:zoom="5.6568543"
     inkscape:cx="91.39623"
     inkscape:cy="7.1861569"
     inkscape:window-x="0"
     inkscape:window-y="27"
     inkscape:window-maximized="1"
     inkscape:current-layer="svg13" />
  <g
     id="g5">
    <title
       id="title2">background</title>
    <rect
       fill="none"
       id="canvas_background"
       height="402"
       width="582"
       y="-1"
       x="-1" />
  </g>
  <g
     id="g11"
     transform="matrix(1.4546817,0,0,1.4548484,-14.548075,-14.548485)">
    <title
       id="title7">Layer 1</title>
    <path
       id="svg_6"
       d="m 32,14 c 9.925,0 18,8.075 18,18 0,9.925 -8.075,18 -18,18 -9.925,0 -18,-8.075 -18,-18 0,-9.925 8.075,-18 18,-18 m 0,-4 C 19.85,10 10,19.85 10,32 10,44.15 19.85,54 32,54 44.15,54 54,44.15 54,32 54,19.85 44.15,10 32,10 Z"
       inkscape:connector-curvature="0"
       style="fill:#826550" />
    <path
       id="svg_11"
       d="m 40,42 c -0.512,0 -1.023,-0.195 -1.414,-0.586 L 30,32.829 V 24 c 0,-1.104 0.896,-2 2,-2 1.104,0 2,0.896 2,2 v 7.171 l 7.414,7.415 c 0.781,0.781 0.781,2.047 0,2.828 C 41.023,41.805 40.512,42 40,42 Z"
       inkscape:connector-curvature="0"
       style="fill:#454545" />
  </g>
</svg>
